A00002345
Tim
Tester
Zac
127.0.0.1
1200





A00002345
Tim
Tester
Zac
127.0.0.1
12000


A01393123
Zachary
Neubert
Zac
52.3.213.61
12000

A00000001,Instructor,The
A00001234,Tester,Susan
A00002345,Tester,Tim
A00003456,Tester,James